…
## Product catalog

You can download a product catalog for local storage.

    ok = copernicus::fetch_product_catalog()

This downloads into a “catalogs” directory within your data directory
Now read it in.

``` r
x = copernicus::read_product_catalog()
x
```

    ## # A tibble: 1,176 × 5
    ##    product_id                             title dataset_id dataset_name vars    
    ##    <chr>                                  <chr> <chr>      <chr>        <list>  
    ##  1 ANTARCTIC_OMI_SI_extent                Anta… antarctic… Sea Ice Ext… <tibble>
    ##  2 ANTARCTIC_OMI_SI_extent_obs            Anta… antarctic… Southern He… <tibble>
    ##  3 ARCTIC_ANALYSISFORECAST_BGC_002_004    Arct… cmems_mod… Arctic Ocea… <tibble>
    ##  4 ARCTIC_ANALYSISFORECAST_BGC_002_004    Arct… cmems_mod… Arctic Ocea… <tibble>
    ##  5 ARCTIC_ANALYSISFORECAST_PHY_002_001    Arct… cmems_mod… Arctic Ocea… <tibble>
    ##  6 ARCTIC_ANALYSISFORECAST_PHY_002_001    Arct… cmems_mod… Arctic Ocea… <tibble>
    ##  7 ARCTIC_ANALYSISFORECAST_PHY_002_001    Arct… cmems_mod… Arctic Ocea… <tibble>
    ##  8 ARCTIC_ANALYSISFORECAST_PHY_002_001    Arct… cmems_mod… Arctic Ocea… <tibble>
    ##  9 ARCTIC_ANALYSISFORECAST_PHY_ICE_002_0… Arct… cmems_mod… neXtSIM-F s… <tibble>
    ## 10 ARCTIC_ANALYSISFORECAST_PHY_ICE_002_0… Arct… cmems_mod… cmems_mod_a… <NULL>  
    ## # ℹ 1,166 more rows
…
